-- Merging decision tree log ---
manifest
ADDED from /Users/yujunnuo/Documents/Startup Project/Yelperz/Yelperz_v2/android/app/src/main/AndroidManifest.xml:1:1-41:12
	package
		ADDED from /Users/yujunnuo/Documents/Startup Project/Yelperz/Yelperz_v2/android/app/src/main/AndroidManifest.xml:2:5-26
		INJECTED from /Users/yujunnuo/Documents/Startup Project/Yelperz/Yelperz_v2/android/app/src/main/AndroidManifest.xml
		INJECTED from /Users/yujunnuo/Documents/Startup Project/Yelperz/Yelperz_v2/android/app/src/main/AndroidManifest.xml
	android:versionName
		INJECTED from /Users/yujunnuo/Documents/Startup Project/Yelperz/Yelperz_v2/android/app/src/main/AndroidManifest.xml
		INJECTED from /Users/yujunnuo/Documents/Startup Project/Yelperz/Yelperz_v2/android/app/src/main/AndroidManifest.xml
	xmlns:android
		ADDED from /Users/yujunnuo/Documents/Startup Project/Yelperz/Yelperz_v2/android/app/src/main/AndroidManifest.xml:1:11-69
	android:versionCode
		INJECTED from /Users/yujunnuo/Documents/Startup Project/Yelperz/Yelperz_v2/android/app/src/main/AndroidManifest.xml
		INJECTED from /Users/yujunnuo/Documents/Startup Project/Yelperz/Yelperz_v2/android/app/src/main/AndroidManifest.xml
uses-permission#android.permission.INTERNET
ADDED from /Users/yujunnuo/Documents/Startup Project/Yelperz/Yelperz_v2/android/app/src/main/AndroidManifest.xml:4:5-67
MERGED from [example:react-native-maps:unspecified] /Users/yujunnuo/Documents/Startup Project/Yelperz/Yelperz_v2/android/app/build/intermediates/exploded-aar/example/react-native-maps/unspecified/AndroidManifest.xml:9:5-67
MERGED from [com.google.android.gms:play-services-maps:10.2.4] /Users/yujunnuo/Documents/Startup Project/Yelperz/Yelperz_v2/android/app/build/intermediates/exploded-aar/com.google.android.gms/play-services-maps/10.2.4/AndroidManifest.xml:20:5-66
	android:name
		ADDED from /Users/yujunnuo/Documents/Startup Project/Yelperz/Yelperz_v2/android/app/src/main/AndroidManifest.xml:4:22-64
uses-permission#android.permission.ACCESS_COARSE_LOCATION
ADDED from /Users/yujunnuo/Documents/Startup Project/Yelperz/Yelperz_v2/android/app/src/main/AndroidManifest.xml:5:5-81
MERGED from [example:react-native-maps:unspecified] /Users/yujunnuo/Documents/Startup Project/Yelperz/Yelperz_v2/android/app/build/intermediates/exploded-aar/example/react-native-maps/unspecified/AndroidManifest.xml:10:5-81
	android:name
		ADDED from /Users/yujunnuo/Documents/Startup Project/Yelperz/Yelperz_v2/android/app/src/main/AndroidManifest.xml:5:22-78
uses-permission#android.permission.ACCESS_FINE_LOCATION
ADDED from /Users/yujunnuo/Documents/Startup Project/Yelperz/Yelperz_v2/android/app/src/main/AndroidManifest.xml:6:5-79
	android:name
		ADDED from /Users/yujunnuo/Documents/Startup Project/Yelperz/Yelperz_v2/android/app/src/main/AndroidManifest.xml:6:22-76
uses-permission#android.permission.ACCESS_LOCATION_EXTRA_COMMANDS
ADDED from /Users/yujunnuo/Documents/Startup Project/Yelperz/Yelperz_v2/android/app/src/main/AndroidManifest.xml:7:5-89
	android:name
		ADDED from /Users/yujunnuo/Documents/Startup Project/Yelperz/Yelperz_v2/android/app/src/main/AndroidManifest.xml:7:22-86
uses-permission#android.permission.SYSTEM_ALERT_WINDOW
ADDED from /Users/yujunnuo/Documents/Startup Project/Yelperz/Yelperz_v2/android/app/src/main/AndroidManifest.xml:8:5-77
MERGED from [com.facebook.react:react-native:0.43.4] /Users/yujunnuo/Documents/Startup Project/Yelperz/Yelperz_v2/android/app/build/intermediates/exploded-aar/com.facebook.react/react-native/0.43.4/AndroidManifest.xml:11:5-78
	android:name
		ADDED from /Users/yujunnuo/Documents/Startup Project/Yelperz/Yelperz_v2/android/app/src/main/AndroidManifest.xml:8:22-75
application
ADDED from /Users/yujunnuo/Documents/Startup Project/Yelperz/Yelperz_v2/android/app/src/main/AndroidManifest.xml:10:5-39:19
MERGED from [example:react-native-auth0:unspecified] /Users/yujunnuo/Documents/Startup Project/Yelperz/Yelperz_v2/android/app/build/intermediates/exploded-aar/example/react-native-auth0/unspecified/AndroidManifest.xml:11:5-12:19
MERGED from [com.android.support:customtabs:23.3.0] /Users/yujunnuo/Documents/Startup Project/Yelperz/Yelperz_v2/android/app/build/intermediates/exploded-aar/com.android.support/customtabs/23.3.0/AndroidManifest.xml:22:5-20
MERGED from [example:react-native-image-picker:unspecified] /Users/yujunnuo/Documents/Startup Project/Yelperz/Yelperz_v2/android/app/build/intermediates/exploded-aar/example/react-native-image-picker/unspecified/AndroidManifest.xml:11:5-21:19
MERGED from [example:react-native-navigation:unspecified] /Users/yujunnuo/Documents/Startup Project/Yelperz/Yelperz_v2/android/app/build/intermediates/exploded-aar/example/react-native-navigation/unspecified/AndroidManifest.xml:11:5-18:19
MERGED from [com.facebook.react:react-native:0.43.4] /Users/yujunnuo/Documents/Startup Project/Yelperz/Yelperz_v2/android/app/build/intermediates/exploded-aar/com.facebook.react/react-native/0.43.4/AndroidManifest.xml:13:5-20
MERGED from [com.facebook.soloader:soloader:0.1.0] /Users/yujunnuo/Documents/Startup Project/Yelperz/Yelperz_v2/android/app/build/intermediates/exploded-aar/com.facebook.soloader/soloader/0.1.0/AndroidManifest.xml:3:3-17
MERGED from [org.webkit:android-jsc:r174650] /Users/yujunnuo/Documents/Startup Project/Yelperz/Yelperz_v2/android/app/build/intermediates/exploded-aar/org.webkit/android-jsc/r174650/AndroidManifest.xml:2:3-17
MERGED from [com.aurelhubert:ahbottomnavigation:2.0.6] /Users/yujunnuo/Documents/Startup Project/Yelperz/Yelperz_v2/android/app/build/intermediates/exploded-aar/com.aurelhubert/ahbottomnavigation/2.0.6/AndroidManifest.xml:11:5-20
MERGED from [com.android.support:design:25.3.1] /Users/yujunnuo/Documents/Startup Project/Yelperz/Yelperz_v2/android/app/build/intermediates/exploded-aar/com.android.support/design/25.3.1/AndroidManifest.xml:29:5-20
MERGED from [com.android.support:transition:25.3.1] /Users/yujunnuo/Documents/Startup Project/Yelperz/Yelperz_v2/android/app/build/intermediates/exploded-aar/com.android.support/transition/25.3.1/AndroidManifest.xml:26:5-20
MERGED from [com.balysv.materialmenu:material-menu-toolbar:1.5.4] /Users/yujunnuo/Documents/Startup Project/Yelperz/Yelperz_v2/android/app/build/intermediates/exploded-aar/com.balysv.materialmenu/material-menu-toolbar/1.5.4/AndroidManifest.xml:12:5-20
MERGED from [com.android.support:appcompat-v7:25.3.1] /Users/yujunnuo/Documents/Startup Project/Yelperz/Yelperz_v2/android/app/build/intermediates/exploded-aar/com.android.support/appcompat-v7/25.3.1/AndroidManifest.xml:29:5-20
MERGED from [com.android.support:animated-vector-drawable:25.3.1] /Users/yujunnuo/Documents/Startup Project/Yelperz/Yelperz_v2/android/app/build/intermediates/exploded-aar/com.android.support/animated-vector-drawable/25.3.1/AndroidManifest.xml:26:5-20
MERGED from [com.android.support:support-vector-drawable:25.3.1] /Users/yujunnuo/Documents/Startup Project/Yelperz/Yelperz_v2/android/app/build/intermediates/exploded-aar/com.android.support/support-vector-drawable/25.3.1/AndroidManifest.xml:26:5-20
MERGED from [com.balysv.materialmenu:material-menu:1.5.4] /Users/yujunnuo/Documents/Startup Project/Yelperz/Yelperz_v2/android/app/build/intermediates/exploded-aar/com.balysv.materialmenu/material-menu/1.5.4/AndroidManifest.xml:12:5-20
MERGED from [com.google.android.gms:play-services-maps:10.2.4] /Users/yujunnuo/Documents/Startup Project/Yelperz/Yelperz_v2/android/app/build/intermediates/exploded-aar/com.google.android.gms/play-services-maps/10.2.4/AndroidManifest.xml:24:5-19
MERGED from [com.google.android.gms:play-services-base:10.2.4] /Users/yujunnuo/Documents/Startup Project/Yelperz/Yelperz_v2/android/app/build/intermediates/exploded-aar/com.google.android.gms/play-services-base/10.2.4/AndroidManifest.xml:18:5-20:19
MERGED from [com.google.android.gms:play-services-tasks:10.2.4] /Users/yujunnuo/Documents/Startup Project/Yelperz/Yelperz_v2/android/app/build/intermediates/exploded-aar/com.google.android.gms/play-services-tasks/10.2.4/AndroidManifest.xml:4:5-19
MERGED from [com.google.android.gms:play-services-basement:10.2.4] /Users/yujunnuo/Documents/Startup Project/Yelperz/Yelperz_v2/android/app/build/intermediates/exploded-aar/com.google.android.gms/play-services-basement/10.2.4/AndroidManifest.xml:19:5-21:19
MERGED from [com.android.support:support-v4:25.3.1] /Users/yujunnuo/Documents/Startup Project/Yelperz/Yelperz_v2/android/app/build/intermediates/exploded-aar/com.android.support/support-v4/25.3.1/AndroidManifest.xml:29:5-20
MERGED from [com.android.support:support-fragment:25.3.1] /Users/yujunnuo/Documents/Startup Project/Yelperz/Yelperz_v2/android/app/build/intermediates/exploded-aar/com.android.support/support-fragment/25.3.1/AndroidManifest.xml:29:5-20
MERGED from [com.android.support:support-media-compat:25.3.1] /Users/yujunnuo/Documents/Startup Project/Yelperz/Yelperz_v2/android/app/build/intermediates/exploded-aar/com.android.support/support-media-compat/25.3.1/AndroidManifest.xml:29:5-20
MERGED from [com.android.support:support-core-ui:25.3.1] /Users/yujunnuo/Documents/Startup Project/Yelperz/Yelperz_v2/android/app/build/intermediates/exploded-aar/com.android.support/support-core-ui/25.3.1/AndroidManifest.xml:29:5-20
MERGED from [com.android.support:support-core-utils:25.3.1] /Users/yujunnuo/Documents/Startup Project/Yelperz/Yelperz_v2/android/app/build/intermediates/exploded-aar/com.android.support/support-core-utils/25.3.1/AndroidManifest.xml:29:5-20
MERGED from [com.android.support:support-compat:25.3.1] /Users/yujunnuo/Documents/Startup Project/Yelperz/Yelperz_v2/android/app/build/intermediates/exploded-aar/com.android.support/support-compat/25.3.1/AndroidManifest.xml:29:5-20
	android:label
		ADDED from /Users/yujunnuo/Documents/Startup Project/Yelperz/Yelperz_v2/android/app/src/main/AndroidManifest.xml:14:9-41
	android:allowBackup
		ADDED from /Users/yujunnuo/Documents/Startup Project/Yelperz/Yelperz_v2/android/app/src/main/AndroidManifest.xml:12:9-35
	android:icon
		ADDED from /Users/yujunnuo/Documents/Startup Project/Yelperz/Yelperz_v2/android/app/src/main/AndroidManifest.xml:13:9-43
	android:theme
		ADDED from /Users/yujunnuo/Documents/Startup Project/Yelperz/Yelperz_v2/android/app/src/main/AndroidManifest.xml:15:9-65
	android:name
		ADDED from /Users/yujunnuo/Documents/Startup Project/Yelperz/Yelperz_v2/android/app/src/main/AndroidManifest.xml:11:9-40
activity#com.example.MainActivity
ADDED from /Users/yujunnuo/Documents/Startup Project/Yelperz/Yelperz_v2/android/app/src/main/AndroidManifest.xml:16:9-35:20
	android:label
		ADDED from /Users/yujunnuo/Documents/Startup Project/Yelperz/Yelperz_v2/android/app/src/main/AndroidManifest.xml:18:13-45
	android:launchMode
		ADDED from /Users/yujunnuo/Documents/Startup Project/Yelperz/Yelperz_v2/android/app/src/main/AndroidManifest.xml:19:13-44
	android:windowSoftInputMode
		ADDED from /Users/yujunnuo/Documents/Startup Project/Yelperz/Yelperz_v2/android/app/src/main/AndroidManifest.xml:21:13-55
	android:configChanges
		ADDED from /Users/yujunnuo/Documents/Startup Project/Yelperz/Yelperz_v2/android/app/src/main/AndroidManifest.xml:20:13-83
	android:name
		ADDED from /Users/yujunnuo/Documents/Startup Project/Yelperz/Yelperz_v2/android/app/src/main/AndroidManifest.xml:17:13-41
intent-filter#android.intent.action.MAIN+android.intent.category.LAUNCHER
ADDED from /Users/yujunnuo/Documents/Startup Project/Yelperz/Yelperz_v2/android/app/src/main/AndroidManifest.xml:22:13-25:29
action#android.intent.action.MAIN
ADDED from /Users/yujunnuo/Documents/Startup Project/Yelperz/Yelperz_v2/android/app/src/main/AndroidManifest.xml:23:17-69
	android:name
		ADDED from /Users/yujunnuo/Documents/Startup Project/Yelperz/Yelperz_v2/android/app/src/main/AndroidManifest.xml:23:25-66
category#android.intent.category.LAUNCHER
ADDED from /Users/yujunnuo/Documents/Startup Project/Yelperz/Yelperz_v2/android/app/src/main/AndroidManifest.xml:24:17-77
	android:name
		ADDED from /Users/yujunnuo/Documents/Startup Project/Yelperz/Yelperz_v2/android/app/src/main/AndroidManifest.xml:24:27-74
intent-filter#android.intent.action.VIEW+android.intent.category.BROWSABLE+android.intent.category.DEFAULT
ADDED from /Users/yujunnuo/Documents/Startup Project/Yelperz/Yelperz_v2/android/app/src/main/AndroidManifest.xml:26:13-34:29
action#android.intent.action.VIEW
ADDED from /Users/yujunnuo/Documents/Startup Project/Yelperz/Yelperz_v2/android/app/src/main/AndroidManifest.xml:27:17-69
	android:name
		ADDED from /Users/yujunnuo/Documents/Startup Project/Yelperz/Yelperz_v2/android/app/src/main/AndroidManifest.xml:27:25-66
category#android.intent.category.DEFAULT
ADDED from /Users/yujunnuo/Documents/Startup Project/Yelperz/Yelperz_v2/android/app/src/main/AndroidManifest.xml:28:17-76
	android:name
		ADDED from /Users/yujunnuo/Documents/Startup Project/Yelperz/Yelperz_v2/android/app/src/main/AndroidManifest.xml:28:27-73
category#android.intent.category.BROWSABLE
ADDED from /Users/yujunnuo/Documents/Startup Project/Yelperz/Yelperz_v2/android/app/src/main/AndroidManifest.xml:29:17-78
	android:name
		ADDED from /Users/yujunnuo/Documents/Startup Project/Yelperz/Yelperz_v2/android/app/src/main/AndroidManifest.xml:29:27-75
data
ADDED from /Users/yujunnuo/Documents/Startup Project/Yelperz/Yelperz_v2/android/app/src/main/AndroidManifest.xml:30:17-33:57
	android:host
		ADDED from /Users/yujunnuo/Documents/Startup Project/Yelperz/Yelperz_v2/android/app/src/main/AndroidManifest.xml:31:21-57
	android:scheme
		ADDED from /Users/yujunnuo/Documents/Startup Project/Yelperz/Yelperz_v2/android/app/src/main/AndroidManifest.xml:33:21-54
		INJECTED from /Users/yujunnuo/Documents/Startup Project/Yelperz/Yelperz_v2/android/app/src/main/AndroidManifest.xml
	android:pathPrefix
		ADDED from /Users/yujunnuo/Documents/Startup Project/Yelperz/Yelperz_v2/android/app/src/main/AndroidManifest.xml:32:21-76
		INJECTED from /Users/yujunnuo/Documents/Startup Project/Yelperz/Yelperz_v2/android/app/src/main/AndroidManifest.xml
meta-data#com.google.android.geo.API_KEY
ADDED from /Users/yujunnuo/Documents/Startup Project/Yelperz/Yelperz_v2/android/app/src/main/AndroidManifest.xml:36:10-38:70
	android:value
		ADDED from /Users/yujunnuo/Documents/Startup Project/Yelperz/Yelperz_v2/android/app/src/main/AndroidManifest.xml:38:13-68
	android:name
		ADDED from /Users/yujunnuo/Documents/Startup Project/Yelperz/Yelperz_v2/android/app/src/main/AndroidManifest.xml:37:13-58
uses-sdk
INJECTED from /Users/yujunnuo/Documents/Startup Project/Yelperz/Yelperz_v2/android/app/src/main/AndroidManifest.xml reason: use-sdk injection requested
MERGED from [example:react-native-auth0:unspecified] /Users/yujunnuo/Documents/Startup Project/Yelperz/Yelperz_v2/android/app/build/intermediates/exploded-aar/example/react-native-auth0/unspecified/AndroidManifest.xml:7:5-9:41
MERGED from [com.android.support:customtabs:23.3.0] /Users/yujunnuo/Documents/Startup Project/Yelperz/Yelperz_v2/android/app/build/intermediates/exploded-aar/com.android.support/customtabs/23.3.0/AndroidManifest.xml:20:5-44
MERGED from [example:react-native-maps:unspecified] /Users/yujunnuo/Documents/Startup Project/Yelperz/Yelperz_v2/android/app/build/intermediates/exploded-aar/example/react-native-maps/unspecified/AndroidManifest.xml:5:5-7:41
MERGED from [example:react-native-image-picker:unspecified] /Users/yujunnuo/Documents/Startup Project/Yelperz/Yelperz_v2/android/app/build/intermediates/exploded-aar/example/react-native-image-picker/unspecified/AndroidManifest.xml:7:5-9:41
MERGED from [example:react-native-navigation:unspecified] /Users/yujunnuo/Documents/Startup Project/Yelperz/Yelperz_v2/android/app/build/intermediates/exploded-aar/example/react-native-navigation/unspecified/AndroidManifest.xml:7:5-9:41
MERGED from [com.facebook.react:react-native:0.43.4] /Users/yujunnuo/Documents/Startup Project/Yelperz/Yelperz_v2/android/app/build/intermediates/exploded-aar/com.facebook.react/react-native/0.43.4/AndroidManifest.xml:7:5-9:41
MERGED from [com.facebook.fbui.textlayoutbuilder:textlayoutbuilder:1.0.0] /Users/yujunnuo/Documents/Startup Project/Yelperz/Yelperz_v2/android/app/build/intermediates/exploded-aar/com.facebook.fbui.textlayoutbuilder/textlayoutbuilder/1.0.0/AndroidManifest.xml:14:5-16:41
MERGED from [com.facebook.fresco:fresco:1.0.1] /Users/yujunnuo/Documents/Startup Project/Yelperz/Yelperz_v2/android/app/build/intermediates/exploded-aar/com.facebook.fresco/fresco/1.0.1/AndroidManifest.xml:5:5-7:41
MERGED from [com.facebook.fresco:drawee:1.0.1] /Users/yujunnuo/Documents/Startup Project/Yelperz/Yelperz_v2/android/app/build/intermediates/exploded-aar/com.facebook.fresco/drawee/1.0.1/AndroidManifest.xml:5:5-7:41
MERGED from [com.facebook.fresco:imagepipeline-okhttp3:1.0.1] /Users/yujunnuo/Documents/Startup Project/Yelperz/Yelperz_v2/android/app/build/intermediates/exploded-aar/com.facebook.fresco/imagepipeline-okhttp3/1.0.1/AndroidManifest.xml:5:5-7:41
MERGED from [com.facebook.fresco:imagepipeline:1.0.1] /Users/yujunnuo/Documents/Startup Project/Yelperz/Yelperz_v2/android/app/build/intermediates/exploded-aar/com.facebook.fresco/imagepipeline/1.0.1/AndroidManifest.xml:5:5-7:41
MERGED from [com.facebook.fresco:imagepipeline-base:1.0.1] /Users/yujunnuo/Documents/Startup Project/Yelperz/Yelperz_v2/android/app/build/intermediates/exploded-aar/com.facebook.fresco/imagepipeline-base/1.0.1/AndroidManifest.xml:5:5-7:41
MERGED from [com.facebook.fresco:fbcore:1.0.1] /Users/yujunnuo/Documents/Startup Project/Yelperz/Yelperz_v2/android/app/build/intermediates/exploded-aar/com.facebook.fresco/fbcore/1.0.1/AndroidManifest.xml:5:5-7:41
MERGED from [com.facebook.soloader:soloader:0.1.0] /Users/yujunnuo/Documents/Startup Project/Yelperz/Yelperz_v2/android/app/build/intermediates/exploded-aar/com.facebook.soloader/soloader/0.1.0/AndroidManifest.xml:2:3-70
MERGED from [com.aurelhubert:ahbottomnavigation:2.0.6] /Users/yujunnuo/Documents/Startup Project/Yelperz/Yelperz_v2/android/app/build/intermediates/exploded-aar/com.aurelhubert/ahbottomnavigation/2.0.6/AndroidManifest.xml:7:5-9:41
MERGED from [com.android.support:design:25.3.1] /Users/yujunnuo/Documents/Startup Project/Yelperz/Yelperz_v2/android/app/build/intermediates/exploded-aar/com.android.support/design/25.3.1/AndroidManifest.xml:21:5-23:62
MERGED from [com.android.support:recyclerview-v7:25.3.1] /Users/yujunnuo/Documents/Startup Project/Yelperz/Yelperz_v2/android/app/build/intermediates/exploded-aar/com.android.support/recyclerview-v7/25.3.1/AndroidManifest.xml:20:5-43
MERGED from [com.android.support:transition:25.3.1] /Users/yujunnuo/Documents/Startup Project/Yelperz/Yelperz_v2/android/app/build/intermediates/exploded-aar/com.android.support/transition/25.3.1/AndroidManifest.xml:20:5-44
MERGED from [com.balysv.materialmenu:material-menu-toolbar:1.5.4] /Users/yujunnuo/Documents/Startup Project/Yelperz/Yelperz_v2/android/app/build/intermediates/exploded-aar/com.balysv.materialmenu/material-menu-toolbar/1.5.4/AndroidManifest.xml:8:5-10:41
MERGED from [com.android.support:appcompat-v7:25.3.1] /Users/yujunnuo/Documents/Startup Project/Yelperz/Yelperz_v2/android/app/build/intermediates/exploded-aar/com.android.support/appcompat-v7/25.3.1/AndroidManifest.xml:21:5-23:78
MERGED from [com.android.support:animated-vector-drawable:25.3.1] /Users/yujunnuo/Documents/Startup Project/Yelperz/Yelperz_v2/android/app/build/intermediates/exploded-aar/com.android.support/animated-vector-drawable/25.3.1/AndroidManifest.xml:20:5-44
MERGED from [com.android.support:support-vector-drawable:25.3.1] /Users/yujunnuo/Documents/Startup Project/Yelperz/Yelperz_v2/android/app/build/intermediates/exploded-aar/com.android.support/support-vector-drawable/25.3.1/AndroidManifest.xml:20:5-43
MERGED from [com.balysv.materialmenu:material-menu:1.5.4] /Users/yujunnuo/Documents/Startup Project/Yelperz/Yelperz_v2/android/app/build/intermediates/exploded-aar/com.balysv.materialmenu/material-menu/1.5.4/AndroidManifest.xml:8:5-10:41
MERGED from [com.google.android.gms:play-services-maps:10.2.4] /Users/yujunnuo/Documents/Startup Project/Yelperz/Yelperz_v2/android/app/build/intermediates/exploded-aar/com.google.android.gms/play-services-maps/10.2.4/AndroidManifest.xml:23:5-43
MERGED from [com.google.android.gms:play-services-base:10.2.4] /Users/yujunnuo/Documents/Startup Project/Yelperz/Yelperz_v2/android/app/build/intermediates/exploded-aar/com.google.android.gms/play-services-base/10.2.4/AndroidManifest.xml:17:5-43
MERGED from [com.google.android.gms:play-services-tasks:10.2.4] /Users/yujunnuo/Documents/Startup Project/Yelperz/Yelperz_v2/android/app/build/intermediates/exploded-aar/com.google.android.gms/play-services-tasks/10.2.4/AndroidManifest.xml:3:5-43
MERGED from [com.google.android.gms:play-services-basement:10.2.4] /Users/yujunnuo/Documents/Startup Project/Yelperz/Yelperz_v2/android/app/build/intermediates/exploded-aar/com.google.android.gms/play-services-basement/10.2.4/AndroidManifest.xml:17:5-43
MERGED from [com.android.support:support-v4:25.3.1] /Users/yujunnuo/Documents/Startup Project/Yelperz/Yelperz_v2/android/app/build/intermediates/exploded-aar/com.android.support/support-v4/25.3.1/AndroidManifest.xml:21:5-23:54
MERGED from [com.android.support:support-fragment:25.3.1] /Users/yujunnuo/Documents/Startup Project/Yelperz/Yelperz_v2/android/app/build/intermediates/exploded-aar/com.android.support/support-fragment/25.3.1/AndroidManifest.xml:21:5-23:60
MERGED from [com.android.support:support-media-compat:25.3.1] /Users/yujunnuo/Documents/Startup Project/Yelperz/Yelperz_v2/android/app/build/intermediates/exploded-aar/com.android.support/support-media-compat/25.3.1/AndroidManifest.xml:21:5-23:63
MERGED from [com.android.support:support-core-ui:25.3.1] /Users/yujunnuo/Documents/Startup Project/Yelperz/Yelperz_v2/android/app/build/intermediates/exploded-aar/com.android.support/support-core-ui/25.3.1/AndroidManifest.xml:21:5-23:58
MERGED from [com.android.support:support-core-utils:25.3.1] /Users/yujunnuo/Documents/Startup Project/Yelperz/Yelperz_v2/android/app/build/intermediates/exploded-aar/com.android.support/support-core-utils/25.3.1/AndroidManifest.xml:21:5-23:61
MERGED from [com.android.support:support-compat:25.3.1] /Users/yujunnuo/Documents/Startup Project/Yelperz/Yelperz_v2/android/app/build/intermediates/exploded-aar/com.android.support/support-compat/25.3.1/AndroidManifest.xml:21:5-23:58
	tools:overrideLibrary
		ADDED from [com.android.support:design:25.3.1] /Users/yujunnuo/Documents/Startup Project/Yelperz/Yelperz_v2/android/app/build/intermediates/exploded-aar/com.android.support/design/25.3.1/AndroidManifest.xml:23:9-59
	android:targetSdkVersion
		INJECTED from /Users/yujunnuo/Documents/Startup Project/Yelperz/Yelperz_v2/android/app/src/main/AndroidManifest.xml
		INJECTED from /Users/yujunnuo/Documents/Startup Project/Yelperz/Yelperz_v2/android/app/src/main/AndroidManifest.xml
	android:minSdkVersion
		INJECTED from /Users/yujunnuo/Documents/Startup Project/Yelperz/Yelperz_v2/android/app/src/main/AndroidManifest.xml
		INJECTED from /Users/yujunnuo/Documents/Startup Project/Yelperz/Yelperz_v2/android/app/src/main/AndroidManifest.xml
provider#android.support.v4.content.FileProvider
ADDED from [example:react-native-image-picker:unspecified] /Users/yujunnuo/Documents/Startup Project/Yelperz/Yelperz_v2/android/app/build/intermediates/exploded-aar/example/react-native-image-picker/unspecified/AndroidManifest.xml:12:9-20:20
	android:authorities
		ADDED from [example:react-native-image-picker:unspecified] /Users/yujunnuo/Documents/Startup Project/Yelperz/Yelperz_v2/android/app/build/intermediates/exploded-aar/example/react-native-image-picker/unspecified/AndroidManifest.xml:14:13-60
	android:grantUriPermissions
		ADDED from [example:react-native-image-picker:unspecified] /Users/yujunnuo/Documents/Startup Project/Yelperz/Yelperz_v2/android/app/build/intermediates/exploded-aar/example/react-native-image-picker/unspecified/AndroidManifest.xml:16:13-47
	android:exported
		ADDED from [example:react-native-image-picker:unspecified] /Users/yujunnuo/Documents/Startup Project/Yelperz/Yelperz_v2/android/app/build/intermediates/exploded-aar/example/react-native-image-picker/unspecified/AndroidManifest.xml:15:13-37
	android:name
		ADDED from [example:react-native-image-picker:unspecified] /Users/yujunnuo/Documents/Startup Project/Yelperz/Yelperz_v2/android/app/build/intermediates/exploded-aar/example/react-native-image-picker/unspecified/AndroidManifest.xml:13:13-67
meta-data#android.support.FILE_PROVIDER_PATHS
ADDED from [example:react-native-image-picker:unspecified] /Users/yujunnuo/Documents/Startup Project/Yelperz/Yelperz_v2/android/app/build/intermediates/exploded-aar/example/react-native-image-picker/unspecified/AndroidManifest.xml:17:13-19:58
	android:resource
		ADDED from [example:react-native-image-picker:unspecified] /Users/yujunnuo/Documents/Startup Project/Yelperz/Yelperz_v2/android/app/build/intermediates/exploded-aar/example/react-native-image-picker/unspecified/AndroidManifest.xml:19:17-55
	android:name
		ADDED from [example:react-native-image-picker:unspecified] /Users/yujunnuo/Documents/Startup Project/Yelperz/Yelperz_v2/android/app/build/intermediates/exploded-aar/example/react-native-image-picker/unspecified/AndroidManifest.xml:18:17-67
activity#com.reactnativenavigation.controllers.NavigationActivity
ADDED from [example:react-native-navigation:unspecified] /Users/yujunnuo/Documents/Startup Project/Yelperz/Yelperz_v2/android/app/build/intermediates/exploded-aar/example/react-native-navigation/unspecified/AndroidManifest.xml:12:9-14:86
	android:configChanges
		ADDED from [example:react-native-navigation:unspecified] /Users/yujunnuo/Documents/Startup Project/Yelperz/Yelperz_v2/android/app/build/intermediates/exploded-aar/example/react-native-navigation/unspecified/AndroidManifest.xml:14:13-83
	android:name
		ADDED from [example:react-native-navigation:unspecified] /Users/yujunnuo/Documents/Startup Project/Yelperz/Yelperz_v2/android/app/build/intermediates/exploded-aar/example/react-native-navigation/unspecified/AndroidManifest.xml:13:13-84
activity#com.facebook.react.devsupport.DevSettingsActivity
ADDED from [example:react-native-navigation:unspecified] /Users/yujunnuo/Documents/Startup Project/Yelperz/Yelperz_v2/android/app/build/intermediates/exploded-aar/example/react-native-navigation/unspecified/AndroidManifest.xml:15:9-17:40
	android:exported
		ADDED from [example:react-native-navigation:unspecified] /Users/yujunnuo/Documents/Startup Project/Yelperz/Yelperz_v2/android/app/build/intermediates/exploded-aar/example/react-native-navigation/unspecified/AndroidManifest.xml:17:13-37
	android:name
		ADDED from [example:react-native-navigation:unspecified] /Users/yujunnuo/Documents/Startup Project/Yelperz/Yelperz_v2/android/app/build/intermediates/exploded-aar/example/react-native-navigation/unspecified/AndroidManifest.xml:16:13-77
android:uses-permission#android.permission.WRITE_EXTERNAL_STORAGE
IMPLIED from /Users/yujunnuo/Documents/Startup Project/Yelperz/Yelperz_v2/android/app/src/main/AndroidManifest.xml:1:1-41:12 reason: org.webkit.android_jsc has a targetSdkVersion < 4
android:uses-permission#android.permission.READ_PHONE_STATE
IMPLIED from /Users/yujunnuo/Documents/Startup Project/Yelperz/Yelperz_v2/android/app/src/main/AndroidManifest.xml:1:1-41:12 reason: org.webkit.android_jsc has a targetSdkVersion < 4
android:uses-permission#android.permission.READ_EXTERNAL_STORAGE
IMPLIED from /Users/yujunnuo/Documents/Startup Project/Yelperz/Yelperz_v2/android/app/src/main/AndroidManifest.xml:1:1-41:12 reason: org.webkit.android_jsc requested WRITE_EXTERNAL_STORAGE
meta-data#android.support.VERSION
ADDED from [com.android.support:design:25.3.1] /Users/yujunnuo/Documents/Startup Project/Yelperz/Yelperz_v2/android/app/build/intermediates/exploded-aar/com.android.support/design/25.3.1/AndroidManifest.xml:25:5-27:34
MERGED from [com.android.support:recyclerview-v7:25.3.1] /Users/yujunnuo/Documents/Startup Project/Yelperz/Yelperz_v2/android/app/build/intermediates/exploded-aar/com.android.support/recyclerview-v7/25.3.1/AndroidManifest.xml:22:5-24:34
MERGED from [com.android.support:transition:25.3.1] /Users/yujunnuo/Documents/Startup Project/Yelperz/Yelperz_v2/android/app/build/intermediates/exploded-aar/com.android.support/transition/25.3.1/AndroidManifest.xml:22:5-24:34
MERGED from [com.android.support:appcompat-v7:25.3.1] /Users/yujunnuo/Documents/Startup Project/Yelperz/Yelperz_v2/android/app/build/intermediates/exploded-aar/com.android.support/appcompat-v7/25.3.1/AndroidManifest.xml:25:5-27:34
MERGED from [com.android.support:animated-vector-drawable:25.3.1] /Users/yujunnuo/Documents/Startup Project/Yelperz/Yelperz_v2/android/app/build/intermediates/exploded-aar/com.android.support/animated-vector-drawable/25.3.1/AndroidManifest.xml:22:5-24:34
MERGED from [com.android.support:support-vector-drawable:25.3.1] /Users/yujunnuo/Documents/Startup Project/Yelperz/Yelperz_v2/android/app/build/intermediates/exploded-aar/com.android.support/support-vector-drawable/25.3.1/AndroidManifest.xml:22:5-24:34
MERGED from [com.android.support:support-v4:25.3.1] /Users/yujunnuo/Documents/Startup Project/Yelperz/Yelperz_v2/android/app/build/intermediates/exploded-aar/com.android.support/support-v4/25.3.1/AndroidManifest.xml:25:5-27:34
MERGED from [com.android.support:support-fragment:25.3.1] /Users/yujunnuo/Documents/Startup Project/Yelperz/Yelperz_v2/android/app/build/intermediates/exploded-aar/com.android.support/support-fragment/25.3.1/AndroidManifest.xml:25:5-27:34
MERGED from [com.android.support:support-media-compat:25.3.1] /Users/yujunnuo/Documents/Startup Project/Yelperz/Yelperz_v2/android/app/build/intermediates/exploded-aar/com.android.support/support-media-compat/25.3.1/AndroidManifest.xml:25:5-27:34
MERGED from [com.android.support:support-core-ui:25.3.1] /Users/yujunnuo/Documents/Startup Project/Yelperz/Yelperz_v2/android/app/build/intermediates/exploded-aar/com.android.support/support-core-ui/25.3.1/AndroidManifest.xml:25:5-27:34
MERGED from [com.android.support:support-core-utils:25.3.1] /Users/yujunnuo/Documents/Startup Project/Yelperz/Yelperz_v2/android/app/build/intermediates/exploded-aar/com.android.support/support-core-utils/25.3.1/AndroidManifest.xml:25:5-27:34
MERGED from [com.android.support:support-compat:25.3.1] /Users/yujunnuo/Documents/Startup Project/Yelperz/Yelperz_v2/android/app/build/intermediates/exploded-aar/com.android.support/support-compat/25.3.1/AndroidManifest.xml:25:5-27:34
	android:value
		ADDED from [com.android.support:design:25.3.1] /Users/yujunnuo/Documents/Startup Project/Yelperz/Yelperz_v2/android/app/build/intermediates/exploded-aar/com.android.support/design/25.3.1/AndroidManifest.xml:27:9-31
	android:name
		ADDED from [com.android.support:design:25.3.1] /Users/yujunnuo/Documents/Startup Project/Yelperz/Yelperz_v2/android/app/build/intermediates/exploded-aar/com.android.support/design/25.3.1/AndroidManifest.xml:26:9-47
uses-permission#android.permission.ACCESS_NETWORK_STATE
ADDED from [com.google.android.gms:play-services-maps:10.2.4] /Users/yujunnuo/Documents/Startup Project/Yelperz/Yelperz_v2/android/app/build/intermediates/exploded-aar/com.google.android.gms/play-services-maps/10.2.4/AndroidManifest.xml:19:5-78
	android:name
		ADDED from [com.google.android.gms:play-services-maps:10.2.4] /Users/yujunnuo/Documents/Startup Project/Yelperz/Yelperz_v2/android/app/build/intermediates/exploded-aar/com.google.android.gms/play-services-maps/10.2.4/AndroidManifest.xml:19:22-76
uses-feature#0x00020000
ADDED from [com.google.android.gms:play-services-maps:10.2.4] /Users/yujunnuo/Documents/Startup Project/Yelperz/Yelperz_v2/android/app/build/intermediates/exploded-aar/com.google.android.gms/play-services-maps/10.2.4/AndroidManifest.xml:21:5-77
	android:glEsVersion
		ADDED from [com.google.android.gms:play-services-maps:10.2.4] /Users/yujunnuo/Documents/Startup Project/Yelperz/Yelperz_v2/android/app/build/intermediates/exploded-aar/com.google.android.gms/play-services-maps/10.2.4/AndroidManifest.xml:21:19-51
	android:required
		ADDED from [com.google.android.gms:play-services-maps:10.2.4] /Users/yujunnuo/Documents/Startup Project/Yelperz/Yelperz_v2/android/app/build/intermediates/exploded-aar/com.google.android.gms/play-services-maps/10.2.4/AndroidManifest.xml:21:52-75
activity#com.google.android.gms.common.api.GoogleApiActivity
ADDED from [com.google.android.gms:play-services-base:10.2.4] /Users/yujunnuo/Documents/Startup Project/Yelperz/Yelperz_v2/android/app/build/intermediates/exploded-aar/com.google.android.gms/play-services-base/10.2.4/AndroidManifest.xml:19:9-172
	android:exported
		ADDED from [com.google.android.gms:play-services-base:10.2.4] /Users/yujunnuo/Documents/Startup Project/Yelperz/Yelperz_v2/android/app/build/intermediates/exploded-aar/com.google.android.gms/play-services-base/10.2.4/AndroidManifest.xml:19:146-170
	android:theme
		ADDED from [com.google.android.gms:play-services-base:10.2.4] /Users/yujunnuo/Documents/Startup Project/Yelperz/Yelperz_v2/android/app/build/intermediates/exploded-aar/com.google.android.gms/play-services-base/10.2.4/AndroidManifest.xml:19:86-145
	android:name
		ADDED from [com.google.android.gms:play-services-base:10.2.4] /Users/yujunnuo/Documents/Startup Project/Yelperz/Yelperz_v2/android/app/build/intermediates/exploded-aar/com.google.android.gms/play-services-base/10.2.4/AndroidManifest.xml:19:19-85
meta-data#com.google.android.gms.version
ADDED from [com.google.android.gms:play-services-basement:10.2.4] /Users/yujunnuo/Documents/Startup Project/Yelperz/Yelperz_v2/android/app/build/intermediates/exploded-aar/com.google.android.gms/play-services-basement/10.2.4/AndroidManifest.xml:20:9-121
	android:value
		ADDED from [com.google.android.gms:play-services-basement:10.2.4] /Users/yujunnuo/Documents/Startup Project/Yelperz/Yelperz_v2/android/app/build/intermediates/exploded-aar/com.google.android.gms/play-services-basement/10.2.4/AndroidManifest.xml:20:66-119
	android:name
		ADDED from [com.google.android.gms:play-services-basement:10.2.4] /Users/yujunnuo/Documents/Startup Project/Yelperz/Yelperz_v2/android/app/build/intermediates/exploded-aar/com.google.android.gms/play-services-basement/10.2.4/AndroidManifest.xml:20:20-65
